Coursera - Reproducible Research Project 1
…
##      steps                date          interval     
##  Min.   :  0.00   2012-10-02:  288   Min.   :   0.0  
##  1st Qu.:  0.00   2012-10-03:  288   1st Qu.: 588.8  
##  Median :  0.00   2012-10-04:  288   Median :1177.5  
##  Mean   : 37.38   2012-10-05:  288   Mean   :1177.5  
##  3rd Qu.: 12.00   2012-10-06:  288   3rd Qu.:1766.2  
##  Max.   :806.00   2012-10-07:  288   Max.   :2355.0  
##                   (Other)   :13536

library(dplyr)
completedaily <- group_by(complete,date)
completedaily <- summarise(completedaily,steps = sum(steps))
print(completedaily)

## # A tibble: 53 x 2
##          date steps
##        <fctr> <int>
##  1 2012-10-02   126
##  2 2012-10-03 11352
##  3 2012-10-04 12116
##  4 2012-10-05 13294
##  5 2012-10-06 15420
##  6 2012-10-07 11015
##  7 2012-10-09 12811
##  8 2012-10-10  9900
##  9 2012-10-11 10304
## 10 2012-10-12 17382
## # ... with 43 more rows
…
